%YAML 1.1
%TAG !u! tag:unity3d.com,2011:
--- !u!114 &11400000
MonoBehaviour:
  m_ObjectHideFlags: 0
  m_CorrespondingSourceObject: {fileID: 0}
  m_PrefabInstance: {fileID: 0}
  m_PrefabAsset: {fileID: 0}
  m_GameObject: {fileID: 0}
  m_Enabled: 1
  m_EditorHideFlags: 0
  m_Script: {fileID: 11500000, guid: 1f25b74b894a6ec429179be29605e352, type: 3}
  m_Name: A11. Diversion
  m_EditorClassIdentifier: 
  storyText: "In front of you is the expanse of the airship hangar.\r\n\r\nFesters
    are running everywhere and mostly yelling at one another. Some men are clambering
    aboard airships, others are attempting to put out fires that have started from
    the explosion.\r\n\r\nWho were those men? Friend or foe? That will have to wait.
    Time to get out of here.\r\n\r\nWhat now?\r\n1. Mad sprint to the nearest airship.\r\n2.
    Quick scrounge for weapons, then mad sprint to the nearest airship."
  nextStates:
  - {fileID: 11400000, guid: 41a1ae35deb78cc4f98e4c9def375667, type: 2}
  - {fileID: 11400000, guid: 8d6d88a9d64aa35419929237a5cca8a4, type: 2}
