%YAML 1.1
%TAG !u! tag:unity3d.com,2011:
--- !u!114 &11400000
MonoBehaviour:
  m_ObjectHideFlags: 0
  m_CorrespondingSourceObject: {fileID: 0}
  m_PrefabInstance: {fileID: 0}
  m_PrefabAsset: {fileID: 0}
  m_GameObject: {fileID: 0}
  m_Enabled: 1
  m_EditorHideFlags: 0
  m_Script: {fileID: 11500000, guid: 1f25b74b894a6ec429179be29605e352, type: 3}
  m_Name: A2. In a Cell
  m_EditorClassIdentifier: 
  storyText: "Well, that was pretty stupid. You sustain a brutal beating and end up
    dumped in a dirty cell. The bars are thick cast iron. The door is old and patched
    together with plate metal and thick red wires.\r\n\r\nYou have no idea where you
    are. And your head hurts.\r\n\r\nSo, what to do now, slugger?\r\n\r\n1. Wait it
    out. My head hurts.\r\n2. Slam into the door with all my might."
  nextStates:
  - {fileID: 11400000, guid: 9b5fc855d46cb2940a9d71064fbaa937, type: 2}
  - {fileID: 11400000, guid: 8f3d59a9b86c64841b4fec009ef3fe15, type: 2}
