%YAML 1.1
%TAG !u! tag:unity3d.com,2011:
--- !u!114 &11400000
MonoBehaviour:
  m_ObjectHideFlags: 0
  m_CorrespondingSourceObject: {fileID: 0}
  m_PrefabInstance: {fileID: 0}
  m_PrefabAsset: {fileID: 0}
  m_GameObject: {fileID: 0}
  m_Enabled: 1
  m_EditorHideFlags: 0
  m_Script: {fileID: 11500000, guid: 1f25b74b894a6ec429179be29605e352, type: 3}
  m_Name: B3. Escape
  m_EditorClassIdentifier: 
  storyText: "The door opens and then... nothing. You peak outside and there is nobody
    there. \r\n\r\nWell, thats odd.\r\n\r\nHave you just been freed? And by whom?
    And why?\r\n\r\nNo time for that now. We have escaping to do. Whats the plan?\r\n\r\n1.
    Wait a bit longer.\r\n2. Get running."
  nextStates:
  - {fileID: 11400000, guid: 34a765a090275af4f82e613c6bc642f4, type: 2}
  - {fileID: 11400000, guid: 5fa5f0fceeb3af74b81c57bcc016cd22, type: 2}
